code/syncbus.vcd
$date
	Fri Jul 04 10:44:21 2014
$end
$version
	Icarus Verilog
$end
$timescale
	1s
$end
$scope module main $end
$var wire 16 ! abus [15:0] $end
$var wire 16 " dbus [15:0] $end
$var reg 1 # clock $end
$var reg 1 $ w $end
$scope module m $end
$var wire 16 % address [15:0] $end
$var wire 1 & clock $end
$var wire 16 ' data [15:0] $end
$var wire 1 ( w $end
$var reg 16 ) ar [15:0] $end
$var reg 16 * dr [15:0] $end
$upscope $end
$scope module rd $end
$var wire 16 + address [15:0] $end
$var wire 1 & clock $end
$var wire 16 , data [15:0] $end
$var wire 1 ( w $end
$var reg 16 - dr [15:0] $end
$upscope $end
$scope module wd $end
$var wire 16 . address [15:0] $end
$var wire 1 & clock $end
$var wire 16 / data [15:0] $end
$var wire 1 ( w $end
$var reg 16 0 dr [15:0] $end
$upscope $end
$upscope $end
$enddefinitions $end
#0
$dumpvars
bx 0
bx /
bx .
bx -
bx ,
bx +
bx *
bx )
x(
bx '
0&
bx %
x$
0#
bx "
bx !
$end
#5
1#
1&
#10
0#
0&
0$
0(
b0 )
b0 !
b0 %
b0 +
b0 .
#15
1#
1&
#20
0#
0&
#25
1#
1&
#30
0#
0&
#35
1#
1&
#40
0#
0&
#45
1#
1&
#50
0#
0&
#55
1#
1&
#60
0#
0&
b1111111111110000 )
b1111111111110000 !
b1111111111110000 %
b1111111111110000 +
b1111111111110000 .
#61
b1110001111100011 "
b1110001111100011 '
b1110001111100011 ,
b1110001111100011 /
b1110001111100011 -
#62
b1110001111100011 *
#65
1#
1&
#70
0#
0&
#75
1#
1&
#80
0#
0&
#85
1#
1&
#90
0#
0&
#95
1#
1&
#100
0#
0&
#105
1#
1&
#110
b111000111110000 "
b111000111110000 '
b111000111110000 ,
b111000111110000 /
0#
0&
1$
1(
b111000111110000 *
b1111111111111000 )
b1111111111111000 !
b1111111111111000 %
b1111111111111000 +
b1111111111111000 .
#111
b1110001111100011 0
#115
1#
1&
#116
b111000111110000 0
